dkpol daily compared
…
Seems to be the right thing. But the tweets arent organised after date. Lets fix that:

dkpoltweets %>% 
  arrange(desc(created_at)) -> dkpoltweets

dkpoltweets

## # A tibble: 6,929 x 90
##    user_id status_id created_at          screen_name text  source
##    <chr>   <chr>     <dttm>              <chr>       <chr> <chr> 
##  1 724743 12294518 2020-02-17 17:05:49 liberty_da "@Kl Tweet
##  2 215749 12294514 2020-02-17 17:04:00 janweichar @Haa Twitt
##  3 112095 12294513 2020-02-17 17:03:31 A4Arbejdsm "43. Twitt
##  4 749382 12294511 2020-02-17 17:02:45 A4Medier    43.0 Echob
##  5 724743 12294509 2020-02-17 17:02:07 liberty_da "@St Tweet
##  6 724743 12294506 2020-02-17 17:00:42 liberty_da "@St Tweet
##  7 724743 12294502 2020-02-17 16:59:13 liberty_da "@St Tweet
##  8 252477 12294500 2020-02-17 16:58:34 berger_bo   "Ska Twitt
##  9 724743 12294498 2020-02-17 16:57:49 liberty_da "@St Tweet
## 10 571395 12294495 2020-02-17 16:56:31 Wehnert     @pon Twitt
## #  with 6,919 more rows, and 84 more variables: display_text_width <dbl>,
## #   reply_to_status_id <chr>, reply_to_user_id <chr>,
## #   reply_to_screen_name <chr>, is_quote <lgl>, is_retweet <lgl>,
## #   favorite_count <int>, retweet_count <int>, quote_count <int>,
## #   reply_count <int>, hashtags <list>, symbols <list>, urls_url <list>,
## #   urls_t.co <list>, urls_expanded_url <list>, media_url <list>,
## #   media_t.co <list>, media_expanded_url <list>, media_type <list>,
## #   ext_media_url <list>, ext_media_t.co <list>,
## #   ext_media_expanded_url <list>, ext_media_type <chr>,
…
Very well. We now have a dataframe containing nine entire days of tweets. Lets move on!

The tidy text format

Next step is to use tidy text for examining our tweets. The tidy text format is defined as:

We thus define the tidy text format as being a table with one-token-per-row. A token is a meaningful unit of text, such as a word, that we are interested in using for analysis, and tokenization is the process of splitting text into tokens. This one-token-per-row structure is in contrast to the ways text is often stored in current analyses, perhaps as strings or in a document-term matrix. For tidy text mining, the token that is stored in each row is most often a single word, but can also be an n-gram, sentence, or paragraph. In the tidytext package, we provide functionality to tokenize by commonly used units of text like these and convert to a one-term-per-row format. - https://www.tidytextmining.com/tidytext.html#tidyausten

dkpoltweets8_16 %>%
  unnest_tokens(word,text) %>% 
  select(word, everything())

## # A tibble: 208,066 x 91
##    word    day user_id status_id created_at          screen_name source
##    <chr> <int> <chr>   <chr>     <dttm>              <chr>       <chr> 
##  1 fuld    16 256913 12291838 2020-02-16 23:20:37 AnneAgerho Twitt
##  2 enig     16 256913 12291838 2020-02-16 23:20:37 AnneAgerho Twitt
##  3 med      16 256913 12291838 2020-02-16 23:20:37 AnneAgerho Twitt
##  4 isab    16 256913 12291838 2020-02-16 23:20:37 AnneAgerho Twitt
##  5 det      16 256913 12291838 2020-02-16 23:20:37 AnneAgerho Twitt
##  6 enes    16 256913 12291838 2020-02-16 23:20:37 AnneAgerho Twitt
##  7 udem    16 256913 12291838 2020-02-16 23:20:37 AnneAgerho Twitt
##  8 i        16 256913 12291838 2020-02-16 23:20:37 AnneAgerho Twitt
##  9 denne    16 256913 12291838 2020-02-16 23:20:37 AnneAgerho Twitt
## 10 sag      16 256913 12291838 2020-02-16 23:20:37 AnneAgerho Twitt
## #  with 208,056 more rows, and 84 more variables:
## #   display_text_width <dbl>, reply_to_status_id <chr>,
## #   reply_to_user_id <chr>, reply_to_screen_name <chr>, is_quote <lgl>,
## #   is_retweet <lgl>, favorite_count <int>, retweet_count <int>,
## #   quote_count <int>, reply_count <int>, hashtags <list>, symbols <list>,
## #   urls_url <list>, urls_t.co <list>, urls_expanded_url <list>,
## #   media_url <list>, media_t.co <list>, media_expanded_url <list>,
## #   media_type <list>, ext_media_url <list>, ext_media_t.co <list>,
## #   ext_media_expanded_url <list>, ext_media_type <chr>,
…
 Okay apparently alot of talk about dkgreen, r, and sas. This isnt really interesting given that SAS has been in a shitstorm lately due to a new advertisement. Besides that we see some obvius hashtags in there: dkbiz. Lets try to use the term frequency - inversed document frequency (tf-idf) to see which word were speciale for each of the days in the period 8th of February until 16th of February. But before we do that lets just quickly see who posts the most:

dkpoltweets8_16_cleaned %>%
  count(screen_name, sort = TRUE)

## # A tibble: 1,771 x 2
##    screen_name         n
##    <chr>           <int>
##  1 DanmarksFremtid   258
##  2 liberty_dane      250
##  3 edtwodth          206
##  4 elkjrras          113
##  5 snothvalpen        71
##  6 RhHofs             67
##  7 LundsgaardUffe     54
##  8 gmitchew           51
##  9 bentpn             47
## 10 raesondk           47
## #  with 1,761 more rows
…
 Next, we need to add the total number of words to our data frame, which is done with left_join:

dkpoltweets8_16_cleaned %>% 
  unnest_tokens(word, text) %>% 
  count(day, word, sort = TRUE) %>% 
  left_join(total_words, by = "day") -> dkpol8_16_word_counts

 Lets take a quick view of the new data frame:

head(dkpol8_16_word_counts, n=50)

## # A tibble: 50 x 4
##      day word      n total
##    <int> <chr> <int> <int>
##  1    13 dkpol   898 28891
##  2    12 dkpol   866 27098
##  3    13 er      821 28891
##  4    12 er      774 27098
##  5    13 og      767 28891
##  6    14 dkpol   745 24696
##  7    11 dkpol   734 23469
##  8    13 i       727 28891
##  9    14 er      708 24696
## 10    12 at      682 27098
## #  with 40 more rows
…
Their tf_idf, defined as

\[\textrm{tf}\_\textrm{idf} = \textrm{tf} \times \textrm{idf}\],

gives the value of 0 as well.

Next step is to calculate tf and idf for all words:

dkpol8_16_word_counts %>% 
  bind_tf_idf(word, day, n) -> dkpol8_16_tfidf

head(dkpol8_16_tfidf, n= 100)

## # A tibble: 100 x 7
##      day word      n total     tf   idf tf_idf
##    <int> <chr> <int> <int>  <dbl> <dbl>  <dbl>
##  1    13 dkpol   898 28891 0.0311     0      0
##  2    12 dkpol   866 27098 0.0320     0      0
##  3    13 er      821 28891 0.0284     0      0
##  4    12 er      774 27098 0.0286     0      0
##  5    13 og      767 28891 0.0265     0      0
##  6    14 dkpol   745 24696 0.0302     0      0
##  7    11 dkpol   734 23469 0.0313     0      0
##  8    13 i       727 28891 0.0252     0      0
##  9    14 er      708 24696 0.0287     0      0
## 10    12 at      682 27098 0.0252     0      0
## #  with 90 more rows

 Lets try with an descending order instead:

dkpol8_16_tfidf <- dkpol8_16_tfidf %>% 
  select(-total) %>%
  arrange(desc(tf_idf))

head(dkpol8_16_tfidf, n= 100)

## # A tibble: 100 x 6
##      day word               n       tf   idf  tf_idf
##    <int> <chr>          <int>    <dbl> <dbl>   <dbl>
##  1    12 sas              228 0.00841  0.405 0.00341
##  2    13 sas              153 0.00530  0.405 0.00215
##  3    14 blommeholm        30 0.00121  1.50  0.00183
##  4    16 larsnp            12 0.000674 2.20  0.00148
##  5    16 nvnet            17 0.000955 1.50  0.00144
##  6    14 stinelinnemann    31 0.00126  1.10  0.00138
##  7    10 strafcelle        11 0.000544 2.20  0.00120
##  8     8 uniform           13 0.000775 1.50  0.00117
##  9    14 besbensen         35 0.00142  0.811 0.00115
## 10    16 24syv             34 0.00191  0.588 0.00112
## #  with 90 more rows
…
